Coding Assignment 2
…
# Country summary
country_dta <- merge_dta |> 
  group_by(country)  |> 
  summarize(          
    women_rep_mean = mean(women_rep, na.rm = TRUE),
    libdem_mean = mean(libdem, na.rm = TRUE), 
    women_rep_max = max(women_rep, na.rm = TRUE),
    libdem_max = max(libdem, na.rm = TRUE), 
  ) |> 
  arrange(desc(women_rep_mean))
country_dta

# A tibble: 179 × 5
   country      women_rep_mean libdem_mean women_rep_max libdem_max
   <chr>                 <dbl>       <dbl>         <dbl>      <dbl>
 1 Rwanda                 48.1      0.123           63.8      0.136
 2 Sweden                 44.7      0.881           47.3      0.887
 3 Cuba                   40.2      0.0492          53.2      0.063
 4 Finland                39.9      0.838           47        0.851
 5 Norway                 38.4      0.857           41.4      0.869
 6 Denmark                37.8      0.888           39.7      0.897
 7 Netherlands            37.0      0.822           42        0.835
 8 South Africa           36.9      0.622           46.8      0.659
 9 Iceland                36.2      0.785           47.6      0.8  
10 Argentina              35.6      0.629           40.9      0.687
# ℹ 169 more rows
…
